{
	"products":[
	{
    "id": 1,
    "name": "AB",
    "desc": "Red1",
	"price": 100,
	"color": "#3350a",
	"image": "https://www.addmecart.com/wp-content/uploads/2021/03/ty.1.jpg"
   },
   {
    "id": 2,
    "name": "BC",
    "desc": "Red2",
	"price": 200,
	"color": "Red",
	"image": "https://vlebazaar.in/image/cache/catalog//B08WJMT8B7/Infinix-Zero-8i-Black-Diamond-8GB-RAM-128GB-Storage-B08WJMT8B7-550x550h.jpg"
   },
   {
    "id": 3,
    "name": "DE",
    "desc": "Red3",
	"price": 300,
	"color": "#3350a",
	"image": "https://images.unsplash.com/photo-1491637639811-60e2756cc1c7?ixlib=rb-1.2.1&ixid=MnwxMjA3fDB8MHxwaG90by1wYWdlfHx8fGVufDB8fHx8&auto=format&fit=crop&w=369&q=80"
   },
   {
    "id": 4,
    "name": "FG",
    "desc": "Red4",
	"price": 400,
	"color": "#3350a",
	"image": "https://images.unsplash.com/photo-1556228578-0d85b1a4d571?ixid=MnwxMjA3fDB8MHxwaG90by1wYWdlfHx8fGVufDB8fHx8&ixlib=rb-1.2.1&auto=format&fit=crop&w=334&q=80"
   }
   ]

}